,X,Class
0,-1.2640526647764023,0
1,1.5279053516384395,1
2,-0.9707109380088592,0
3,0.4705596158864256,1
4,-0.10069671647152238,0
5,0.3037931847261239,1
6,-1.7259624283953676,1
7,1.5850953690155405,0
8,0.13429659312761066,1
9,-1.1068554666418748,0
10,1.578225549157934,0
11,0.10749794279303129,0
12,-0.7640478266792808,1
13,-0.7751885093661547,1
14,1.3838471654592486,1
15,0.7603850849562862,0
16,-0.28564551387128684,0
17,0.5383674765639552,1
18,-2.0838966321055628,1
19,0.9377817100958132,1
20,-0.005777996187991759,0
21,-0.46747896711516473,0
22,-0.4230152990413028,0
23,1.0644820931620136,1
24,-2.9033675966105537,0
25,1.6168903749540906,1
26,1.4255098858099506,0
27,-0.6647551187729498,0
28,0.9850178596329814,0
29,-1.7004652650824355,1
30,-1.1001438070897078,1
31,-1.3156440908144533,1
32,0.810500910211959,1
33,-1.0447783739987215,1
34,-0.6892293733135166,1
35,-0.8527568645833081,0
36,1.113472107571644,1
37,-1.9211697177598397,1
38,-0.701402418249351,0
39,0.8490878496209407,1
40,1.0506997882323679,0
41,-0.5368744556359997,1
42,-0.029192717790845975,1
43,1.3940559849253946,1
44,-0.3978674417744099,1
45,1.0191273848547717,1
46,1.8988813000456628,0
47,-0.3548496436913289,0
48,-0.387016470612039,1
49,-1.9273053854713207,1
50,0.550756592444001,0
51,0.954355812942892,0
52,0.7827765038627524,0
53,-1.793237901948804,0
54,1.2418554963837798,1
55,1.7077468762698287,1
56,0.323153396376176,0
57,-0.9918343941759342,0
58,-1.1632823724613226,1
59,-0.02133509925254873,1
60,-1.581995292041904,0
61,-1.2431141849608167,0
62,-0.4101690237474203,1
63,-1.0550753379742197,0
64,-1.0573121426115188,0
65,-1.2841172159232188,1
66,0.9131260405168374,1
67,-1.3877453408000875,1
68,0.030027763462286312,1
69,-0.45000776181154556,0
70,0.2056331354357321,1
71,-0.46002617906727195,1
72,-0.1734129912343413,1
73,-0.2166548443783866,0
74,-0.2599348352068893,0
75,0.5662934309673903,0
76,0.990522471289851,1
77,-0.594763301867203,0
78,0.34346297841063883,0
79,-2.589322530566582,0
80,-0.01650231874841613,0
81,-0.06609069283399115,0
82,-0.12836570418970597,0
83,-0.8955772873094923,1
84,0.5750977128449908,1
85,-0.498446705212954,0
86,-1.1553000922710281,0
87,0.9008386879950518,0
88,0.8789613065987242,1
89,-1.4949360125913533,1
90,-0.30249370768047723,1
91,-1.0637977286906226,1
92,1.7047238524908048,0
93,0.8774261950333604,0
94,1.0025602899242294,1
95,-1.0437645381422618,1
96,1.2680277822976784,0
97,-0.2820222513987195,1
98,0.33168039114727704,1
99,0.4370614140682786,0
